#VRML V2.0 utf8
#kicad StepUp wrl exported

# Copyright (C) 2022, kicad StepUp
# 
# This work is licensed under the
# [Creative Commons CC-BY-SA 4.0 License](https://creativecommons.org/licenses/by-sa/4.0/legalcode),
# with the following exception:
# 
# To the extent that the creation of electronic designs that use 'Licensed Material' can be
# considered to be 'Adapted Material', then the copyright holder waives article 3 of the license
# with respect to these designs and any generated files which use data provided as part of the
# 'Licensed Material'.
# 
# You are free to use the library data in your own projects without the obligation to share your
# project files under this or any other license agreement. However, if you wish to distribute
# these libraries, or parts thereof (including in modified form) as a collection then the exception
# above does not apply. Please refer to
# https://gitlab.com/kicad/libraries/kicad-packages3D/-/blob/master/LICENSE.md for further clarification
# of the exception.
# 
# Disclaimer of Warranties and Limitation of Liability.
# These libraries are provided in the hope that they will be useful, but are provided without warranty of any kind, express or implied.
# USE 3D CAD DATA AT YOUR OWN RISK
# DO NOT RELY UPON ANY INFORMATION FOUND HERE WITHOUT INDEPENDENT VERIFICATION.
# 
Shape {
	appearance Appearance {material DEF PIN-01 Material {
		ambientIntensity 0.271
		diffuseColor 0.824 0.82 0.781
		specularColor 0.328 0.258 0.172
		emissiveColor 0.0 0.0 0.0
		transparency 0.0
		shininess 0.7
		}
	}
}
Shape {
	appearance Appearance {material DEF CAP-CERAMIC-05 Material {
		ambientIntensity 0.179
		diffuseColor 0.273 0.273 0.273
		specularColor 0.203 0.188 0.176
		emissiveColor 0.0 0.0 0.0
		transparency 0.0
		shininess 0.15
		}
	}
}
Shape { geometry IndexedFaceSet 
{ creaseAngle 0.50 coordIndex [0,1,2,-1,2,1,3,-1,4,5,6,-1,4,7,5,-1,7,3,5,-1,5,3,1,-1]
coord Coordinate { point [-0.941 0.394 0.079,-0.941 0.394 0.984,-0.941 1.020 0.079,-0.941 1.020 1.102,-0.941 -1.020 0.079,-0.941 -0.394 0.984,-0.941 -0.394 0.079,-0.941 -1.020 1.102]
}}
appearance Appearance{material USE CAP-CERAMIC-05 }
}
Shape { geometry IndexedFaceSet 
{ creaseAngle 0.50 coordIndex [0,1,2,-1,0,2,3,-1]
coord Coordinate { point [0.941 1.020 1.102,-0.941 1.020 1.102,-0.941 -1.020 1.102,0.941 -1.020 1.102]
}}
appearance Appearance{material USE CAP-CERAMIC-05 }
}
Shape { geometry IndexedFaceSet 
{ creaseAngle 0.50 coordIndex [0,1,2,-1,0,2,3,-1]
coord Coordinate { point [0.941 1.020 1.102,0.941 1.020 0.079,-0.941 1.020 0.079,-0.941 1.020 1.102]
}}
appearance Appearance{material USE CAP-CERAMIC-05 }
}
Shape { geometry IndexedFaceSet 
{ creaseAngle 0.50 coordIndex [0,1,2,-1,1,3,2,-1,4,3,1,-1,5,6,7,-1,6,8,1,-1,1,8,4,-1,5,8,6,-1,4,9,3,-1,8,10,11,-1,5,10,8,-1]
coord Coordinate { point [-0.941 -0.394 0.079,-0.020 -0.394 0.079,-0.941 -1.020 0.079,0.941 -1.020 0.079,0.020 -0.394 0.079,-0.941 1.020 0.079,-0.020 0.394 0.079,-0.941 0.394 0.079,0.020 0.394 0.079,0.941 -0.394 0.079,0.941 1.020 0.079,0.941 0.394 0.079]
}}
appearance Appearance{material USE CAP-CERAMIC-05 }
}
Shape { geometry IndexedFaceSet 
{ creaseAngle 0.50 coordIndex [0,1,2,-1,0,3,1,-1,0,4,3,-1,0,5,4,-1,0,6,5,-1,0,7,6,-1,0,8,7,-1,9,0,2,-1,10,9,11,-1,12,10,13,-1,12,13,14,-1,15,12,16,-1,15,10,12,-1,15,0,9,-1,15,9,10,-1,17,18,8,-1,17,8,0,-1]
coord Coordinate { point [-0.941 0.394 0.079,-1.018 0.394 0.061,-1.020 0.394 0.079,-1.012 0.394 0.045,-1.003 0.394 0.030,-0.990 0.394 0.017,-0.975 0.394 0.008,-0.958 0.394 0.002,-0.941 0.394 -0.000,-1.020 0.394 0.906,-1.012 0.394 0.940,-1.018 0.394 0.923,-0.975 0.394 0.976,-1.003 0.394 0.955,-0.990 0.394 0.967,-0.941 0.394 0.984,-0.958 0.394 0.982,-0.020 0.394 0.079,-0.020 0.394 0.000]
}}
appearance Appearance{material USE PIN-01 }
}
Shape { geometry IndexedFaceSet 
{ creaseAngle 0.50 coordIndex [0,1,2,-1,0,3,1,-1,4,2,5,-1,4,0,2,-1,6,5,7,-1,6,4,5,-1,8,7,9,-1,8,6,7,-1,10,9,11,-1,10,8,9,-1,12,11,13,-1,12,10,11,-1,14,13,15,-1,14,12,13,-1]
coord Coordinate { point [-1.018 0.394 0.923,-1.020 -0.394 0.906,-1.018 -0.394 0.923,-1.020 0.394 0.906,-1.012 0.394 0.940,-1.012 -0.394 0.940,-1.003 0.394 0.955,-1.003 -0.394 0.955,-0.990 0.394 0.967,-0.990 -0.394 0.967,-0.975 0.394 0.976,-0.975 -0.394 0.976,-0.958 0.394 0.982,-0.958 -0.394 0.982,-0.941 0.394 0.984,-0.941 -0.394 0.984]
}}
appearance Appearance{material USE PIN-01 }
}
Shape { geometry IndexedFaceSet 
{ creaseAngle 0.50 coordIndex [0,1,2,-1,3,1,0,-1,4,1,3,-1,5,1,4,-1,6,1,5,-1,7,1,6,-1,8,1,7,-1,1,9,2,-1,9,10,11,-1,10,12,13,-1,13,12,14,-1,12,15,16,-1,10,15,12,-1,1,15,9,-1,9,15,10,-1,17,18,8,-1,8,18,1,-1]
coord Coordinate { point [-1.018 -0.394 0.061,-0.941 -0.394 0.079,-1.020 -0.394 0.079,-1.012 -0.394 0.045,-1.003 -0.394 0.030,-0.990 -0.394 0.017,-0.975 -0.394 0.008,-0.958 -0.394 0.002,-0.941 -0.394 -0.000,-1.020 -0.394 0.906,-1.012 -0.394 0.940,-1.018 -0.394 0.923,-0.975 -0.394 0.976,-1.003 -0.394 0.955,-0.990 -0.394 0.967,-0.941 -0.394 0.984,-0.958 -0.394 0.982,-0.020 -0.394 0.000,-0.020 -0.394 0.079]
}}
appearance Appearance{material USE PIN-01 }
}
Shape { geometry IndexedFaceSet 
{ creaseAngle 0.50 coordIndex [0,1,2,-1,2,1,3,-1]
coord Coordinate { point [0.941 -1.020 0.079,0.941 -1.020 1.102,-0.941 -1.020 0.079,-0.941 -1.020 1.102]
}}
appearance Appearance{material USE CAP-CERAMIC-05 }
}
Shape { geometry IndexedFaceSet 
{ creaseAngle 0.50 coordIndex [0,1,2,-1,0,2,3,-1,4,5,6,-1,7,5,4,-1,3,7,4,-1,3,4,0,-1]
coord Coordinate { point [0.941 0.394 0.984,0.941 0.394 0.079,0.941 1.020 0.079,0.941 1.020 1.102,0.941 -0.394 0.984,0.941 -1.020 0.079,0.941 -0.394 0.079,0.941 -1.020 1.102]
}}
appearance Appearance{material USE CAP-CERAMIC-05 }
}
Shape { geometry IndexedFaceSet 
{ creaseAngle 0.50 coordIndex [0,1,2,-1,0,2,3,-1]
coord Coordinate { point [-0.020 -0.394 0.079,-0.020 -0.394 0.000,-0.020 0.394 0.000,-0.020 0.394 0.079]
}}
appearance Appearance{material USE PIN-01 }
}
Shape { geometry IndexedFaceSet 
{ creaseAngle 0.50 coordIndex [0,1,2,-1,0,2,3,-1,0,3,4,-1,0,4,5,-1,0,5,6,-1,7,1,0,-1,8,7,0,-1,9,8,0,-1,10,9,0,-1,11,0,12,-1,11,10,0,-1,13,14,11,-1,13,15,14,-1,13,16,15,-1,13,17,18,-1,13,12,17,-1,13,11,12,-1]
coord Coordinate { point [0.941 0.394 0.079,0.990 0.394 0.017,0.975 0.394 0.008,0.958 0.394 0.002,0.941 0.394 -0.000,0.020 0.394 0.000,0.020 0.394 0.079,1.003 0.394 0.030,1.012 0.394 0.045,1.018 0.394 0.061,1.020 0.394 0.079,1.020 0.394 0.906,0.941 0.394 0.984,0.990 0.394 0.967,1.018 0.394 0.923,1.012 0.394 0.940,1.003 0.394 0.955,0.958 0.394 0.982,0.975 0.394 0.976]
}}
appearance Appearance{material USE PIN-01 }
}
Shape { geometry IndexedFaceSet 
{ creaseAngle 0.50 coordIndex [0,1,2,-1,2,1,3,-1]
coord Coordinate { point [0.020 -0.394 0.000,0.020 -0.394 0.079,0.020 0.394 0.000,0.020 0.394 0.079]
}}
appearance Appearance{material USE PIN-01 }
}
Shape { geometry IndexedFaceSet 
{ creaseAngle 0.50 coordIndex [0,1,2,-1,2,1,3,-1,3,1,4,-1,4,1,5,-1,5,1,6,-1,0,7,1,-1,7,8,1,-1,8,9,1,-1,9,10,1,-1,1,11,12,-1,10,11,1,-1,13,14,11,-1,15,14,13,-1,16,14,15,-1,17,14,18,-1,12,14,17,-1,11,14,12,-1]
coord Coordinate { point [0.990 -0.394 0.017,0.941 -0.394 0.079,0.975 -0.394 0.008,0.958 -0.394 0.002,0.941 -0.394 -0.000,0.020 -0.394 0.000,0.020 -0.394 0.079,1.003 -0.394 0.030,1.012 -0.394 0.045,1.018 -0.394 0.061,1.020 -0.394 0.079,1.020 -0.394 0.906,0.941 -0.394 0.984,1.018 -0.394 0.923,0.990 -0.394 0.967,1.012 -0.394 0.940,1.003 -0.394 0.955,0.958 -0.394 0.982,0.975 -0.394 0.976]
}}
appearance Appearance{material USE PIN-01 }
}
Shape { geometry IndexedFaceSet 
{ creaseAngle 0.50 coordIndex [0,1,2,-1,2,1,3,-1]
coord Coordinate { point [-0.941 0.394 -0.000,-0.020 0.394 0.000,-0.941 -0.394 -0.000,-0.020 -0.394 0.000]
}}
appearance Appearance{material USE PIN-01 }
}
Shape { geometry IndexedFaceSet 
{ creaseAngle 0.50 coordIndex [0,1,2,-1,2,1,3,-1]
coord Coordinate { point [-1.020 -0.394 0.079,-1.020 -0.394 0.906,-1.020 0.394 0.079,-1.020 0.394 0.906]
}}
appearance Appearance{material USE PIN-01 }
}
Shape { geometry IndexedFaceSet 
{ creaseAngle 0.50 coordIndex [0,1,2,-1,3,1,0,-1,2,4,5,-1,1,4,2,-1,5,6,7,-1,4,6,5,-1,7,8,9,-1,6,8,7,-1,9,10,11,-1,8,10,9,-1,11,12,13,-1,10,12,11,-1,13,14,15,-1,12,14,13,-1]
coord Coordinate { point [-1.020 -0.394 0.079,-1.018 0.394 0.061,-1.018 -0.394 0.061,-1.020 0.394 0.079,-1.012 0.394 0.045,-1.012 -0.394 0.045,-1.003 0.394 0.030,-1.003 -0.394 0.030,-0.990 0.394 0.017,-0.990 -0.394 0.017,-0.975 0.394 0.008,-0.975 -0.394 0.008,-0.958 0.394 0.002,-0.958 -0.394 0.002,-0.941 0.394 -0.000,-0.941 -0.394 -0.000]
}}
appearance Appearance{material USE PIN-01 }
}
Shape { geometry IndexedFaceSet 
{ creaseAngle 0.50 coordIndex [0,1,2,-1,3,1,0,-1,2,4,5,-1,1,4,2,-1,5,6,7,-1,4,6,5,-1,7,8,9,-1,6,8,7,-1,9,10,11,-1,8,10,9,-1,11,12,13,-1,10,12,11,-1,13,14,15,-1,12,14,13,-1]
coord Coordinate { point [1.020 -0.394 0.906,1.018 0.394 0.923,1.018 -0.394 0.923,1.020 0.394 0.906,1.012 0.394 0.940,1.012 -0.394 0.940,1.003 0.394 0.955,1.003 -0.394 0.955,0.990 0.394 0.967,0.990 -0.394 0.967,0.975 0.394 0.976,0.975 -0.394 0.976,0.958 0.394 0.982,0.958 -0.394 0.982,0.941 0.394 0.984,0.941 -0.394 0.984]
}}
appearance Appearance{material USE PIN-01 }
}
Shape { geometry IndexedFaceSet 
{ creaseAngle 0.50 coordIndex [0,1,2,-1,0,3,1,-1,4,2,5,-1,4,0,2,-1,6,5,7,-1,6,4,5,-1,8,7,9,-1,8,6,7,-1,10,9,11,-1,10,8,9,-1,12,11,13,-1,12,10,11,-1,14,13,15,-1,14,12,13,-1]
coord Coordinate { point [1.018 0.394 0.061,1.020 -0.394 0.079,1.018 -0.394 0.061,1.020 0.394 0.079,1.012 0.394 0.045,1.012 -0.394 0.045,1.003 0.394 0.030,1.003 -0.394 0.030,0.990 0.394 0.017,0.990 -0.394 0.017,0.975 0.394 0.008,0.975 -0.394 0.008,0.958 0.394 0.002,0.958 -0.394 0.002,0.941 0.394 -0.000,0.941 -0.394 -0.000]
}}
appearance Appearance{material USE PIN-01 }
}
Shape { geometry IndexedFaceSet 
{ creaseAngle 0.50 coordIndex [0,1,2,-1,0,2,3,-1]
coord Coordinate { point [1.020 -0.394 0.906,1.020 -0.394 0.079,1.020 0.394 0.079,1.020 0.394 0.906]
}}
appearance Appearance{material USE PIN-01 }
}
Shape { geometry IndexedFaceSet 
{ creaseAngle 0.50 coordIndex [0,1,2,-1,2,1,3,-1]
coord Coordinate { point [0.020 0.394 0.000,0.941 0.394 -0.000,0.020 -0.394 0.000,0.941 -0.394 -0.000]
}}
appearance Appearance{material USE PIN-01 }
}
